{
  "project": {
    "version": "1.0.0-beta.1",
    "name": "voteitup-client"
  },
  "apps": [
    {"main": "src/main.ts", "tsconfig": "src/tsconfig.json"}
  ],
  "addons": [],
  "packages": [],
  "e2e": {
    "protractor": {
      "config": "config/protractor.conf.js"
    }
  },
  "test": {
    "karma": {
      "config": "config/karma.conf.js"
    }
  },
  "defaults": {
    "prefix": "app",
    "sourceDir": "src"
  }
}
